PARTE_C/simulation/qsim/PARTE_C.msim.vcd
$comment
	File created using the following command:
		vcd file PARTE_C.msim.vcd -direction
$end
$date
	Wed Nov 06 17:27:43 2024
$end
$version
	ModelSim Version 10.1d
$end
$timescale
	1ps
$end
$scope module PARTE_C_vlg_vec_tst $end
$var reg 1 ! A0 $end
$var reg 1 " A1 $end
$var reg 1 # A2 $end
$var reg 1 $ A3 $end
$var reg 1 % B0 $end
$var reg 1 & B1 $end
$var reg 1 ' B2 $end
$var reg 1 ( B3 $end
$var reg 1 ) Bin $end
$var reg 1 * CLK $end
$var wire 1 + B $end
$var wire 1 , C0 $end
$var wire 1 - C1 $end
$var wire 1 . C2 $end
$var wire 1 / C3 $end
$var wire 1 0 Z $end
$var wire 1 1 sampler $end
$scope module i1 $end
$var wire 1 2 gnd $end
$var wire 1 3 vcc $end
$var wire 1 4 unknown $end
$var tri1 1 5 devclrn $end
$var tri1 1 6 devpor $end
$var tri1 1 7 devoe $end
$var wire 1 8 inst11~q $end
$var wire 1 9 B3~input_o $end
$var wire 1 : inst11~feeder_combout $end
$var wire 1 ; C0~output_o $end
$var wire 1 < C1~output_o $end
$var wire 1 = C2~output_o $end
$var wire 1 > C3~output_o $end
$var wire 1 ? B~output_o $end
$var wire 1 @ Z~output_o $end
$var wire 1 A CLK~input_o $end
$var wire 1 B CLK~inputclkctrl_outclk $end
$var wire 1 C A0~input_o $end
$var wire 1 D inst2~feeder_combout $end
$var wire 1 E inst2~q $end
$var wire 1 F B0~input_o $end
$var wire 1 G inst8~q $end
$var wire 1 H Bin~input_o $end
$var wire 1 I inst17~q $end
$var wire 1 J inst|Diff~0_combout $end
$var wire 1 K inst12~q $end
$var wire 1 L A1~input_o $end
$var wire 1 M inst5~feeder_combout $end
$var wire 1 N inst5~q $end
$var wire 1 O B1~input_o $end
$var wire 1 P inst9~feeder_combout $end
$var wire 1 Q inst9~q $end
$var wire 1 R inst|Bout~0_combout $end
$var wire 1 S inst1|Diff~combout $end
$var wire 1 T inst13~q $end
$var wire 1 U A2~input_o $end
$var wire 1 V inst6~q $end
$var wire 1 W inst1|Bout~0_combout $end
$var wire 1 X inst3|Diff~combout $end
$var wire 1 Y inst14~q $end
$var wire 1 Z B2~input_o $end
$var wire 1 [ inst10~q $end
$var wire 1 \ A3~input_o $end
$var wire 1 ] inst7~feeder_combout $end
$var wire 1 ^ inst7~q $end
$var wire 1 _ inst4|Diff~0_combout $end
$var wire 1 ` inst4|Diff~combout $end
$var wire 1 a inst15~q $end
$var wire 1 b inst3|Bout~0_combout $end
$var wire 1 c inst4|Bout~0_combout $end
$var wire 1 d inst16~q $end
$var wire 1 e inst18~combout $end
$var wire 1 f inst20~q $end
$upscope $end
$upscope $end
$enddefinitions $end
#0
$dumpvars
0!
0"
0#
0$
1%
0&
0'
0(
0)
0*
0+
0,
0-
0.
0/
00
x1
02
13
x4
15
16
17
08
09
0:
0;
0<
0=
0>
0?
0@
0A
0B
0C
0D
0E
1F
0G
0H
0I
0J
0K
0L
0M
0N
0O
0P
0Q
0R
0S
0T
0U
0V
0W
0X
0Y
0Z
0[
0\
0]
0^
0_
0`
0a
0b
0c
0d
1e
0f
$end
#5000
1*
1A
1B
01
1G
1f
1R
1J
1@
10
1W
1S
0e
1b
1`
1X
1c
#10000
0*
0A
0B
11
#15000
1*
1A
1B
01
0f
1d
1a
1Y
1T
1K
0@
1?
1>
1=
1<
1;
00
1+
1/
1.
1-
1,
#20000
1!
0*
1C
0A
0B
11
1D
#25000
1*
1A
1B
01
1E
0R
0J
0W
0S
0b
0`
0X
0c
1e
#30000
0*
0A
0B
11
#35000
1*
1A
1B
01
1f
0d
0a
0Y
0T
0K
1@
0?
0>
0=
0<
0;
10
0+
0/
0.
0-
0,
#40000
1"
0!
0*
1L
0C
0A
0B
11
1M
0D
#45000
1*
1A
1B
01
1N
0E
1S
1R
1J
0e
0S
#50000
0*
0A
0B
11
#55000
1*
1A
1B
01
0f
1K
0@
1;
00
1,
#60000
1!
0*
1C
0A
0B
11
1D
#65000
1*
1A
1B
01
1E
0R
0J
1S
1e
0e
#70000
0*
0A
0B
11
#75000
1*
1A
1B
01
1T
0K
1<
0;
1-
0,
#80000
0"
0!
0*
0L
0C
0A
0B
11
0M
0D
#85000
1*
1A
1B
01
0N
0E
0S
1R
1J
1W
1S
1b
1`
1X
1c
#90000
0*
0A
0B
11
#95000
1*
1A
1B
01
1d
1a
1Y
1K
1?
1>
1=
1;
1+
1/
1.
1,
#100000
1!
0*
1C
0A
0B
11
1D
#105000
1*
1A
1B
01
1E
0R
0J
0W
0S
0b
0`
0X
0c
1e
#110000
0*
0A
0B
11
#115000
1*
1A
1B
01
1f
0d
0a
0Y
0T
0K
1@
0?
0>
0=
0<
0;
10
0+
0/
0.
0-
0,
#120000
1"
0!
0*
1L
0C
0A
0B
11
1M
0D
#125000
1*
1A
1B
01
1N
0E
1S
1R
1J
0e
0S
#130000
0*
0A
0B
11
#135000
1*
1A
1B
01
0f
1K
0@
1;
00
1,
#140000
1!
0*
1C
0A
0B
11
1D
#145000
1*
1A
1B
01
1E
0R
0J
1S
1e
0e
#150000
0*
0A
0B
11
#155000
1*
1A
1B
01
1T
0K
1<
0;
1-
0,
#160000
1#
0"
0!
0*
1U
0L
0C
0A
0B
11
0M
0D
#165000
1*
1A
1B
01
1V
0N
0E
1X
0S
1R
1J
1W
1S
0X
#170000
0*
0A
0B
11
#175000
1*
1A
1B
01
1K
1;
1,
#180000
1!
0*
1C
0A
0B
11
1D
#185000
1*
1A
1B
01
1E
0R
0J
0W
0S
1X
1e
0e
#190000
0*
0A
0B
11
#195000
1*
1A
1B
01
1Y
0T
0K
1=
0<
0;
1.
0-
0,
#200000
1"
0!
0*
1L
0C
0A
0B
11
1M
0D
#205000
1*
1A
1B
01
1N
0E
1S
1R
1J
0S
#210000
0*
0A
0B
11
#215000
1*
1A
1B
01
1K
1;
1,
#220000
1!
0*
1C
0A
0B
11
1D
#225000
1*
1A
1B
01
1E
0R
0J
1S
#230000
0*
0A
0B
11
#235000
1*
1A
1B
01
1T
0K
1<
0;
1-
0,
#240000
0"
0!
0*
0L
0C
0A
0B
11
0M
0D
#245000
1*
1A
1B
01
0N
0E
0S
1R
1J
1W
1S
0X
#250000
0*
0A
0B
11
#255000
1*
1A
1B
01
0Y
1K
0=
1;
0.
1,
#260000
1!
0*
1C
0A
0B
11
1D
#265000
1*
1A
1B
01
1E
0R
0J
0W
0S
1X
1e
0e
#270000
0*
0A
0B
11
#275000
1*
1A
1B
01
1Y
0T
0K
1=
0<
0;
1.
0-
0,
#280000
1"
0!
0*
1L
0C
0A
0B
11
1M
0D
#285000
1*
1A
1B
01
1N
0E
1S
1R
1J
0S
#290000
0*
0A
0B
11
#295000
1*
1A
1B
01
1K
1;
1,
#300000
1!
0*
1C
0A
0B
11
1D
#305000
1*
1A
1B
01
1E
0R
0J
1S
#310000
0*
0A
0B
11
#315000
1*
1A
1B
01
1T
0K
1<
0;
1-
0,
#320000
1$
0#
0"
0!
0*
1\
0U
0L
0C
0A
0B
11
1]
0M
0D
#325000
1*
1A
1B
01
1^
0V
0N
0E
1_
0X
0S
1R
1J
1`
1W
1S
1b
0`
1X
#330000
0*
0A
0B
11
#335000
1*
1A
1B
01
1K
1;
1,
#340000
1!
0*
1C
0A
0B
11
1D
#345000
1*
1A
1B
01
1E
0R
0J
0W
0S
0b
1`
0X
#350000
0*
0A
0B
11
#355000
1*
1A
1B
01
1a
0Y
0T
0K
1>
0=
0<
0;
1/
0.
0-
0,
#360000
1"
0!
0*
1L
0C
0A
0B
11
1M
0D
#365000
1*
1A
1B
01
1N
0E
1S
1R
1J
0S
#370000
0*
0A
0B
11
#375000
1*
1A
1B
01
1K
1;
1,
#380000
1!
0*
1C
0A
0B
11
1D
#385000
1*
1A
1B
01
1E
0R
0J
1S
#390000
0*
0A
0B
11
#395000
1*
1A
1B
01
1T
0K
1<
0;
1-
0,
#400000
0"
0!
0*
0L
0C
0A
0B
11
0M
0D
#405000
1*
1A
1B
01
0N
0E
0S
1R
1J
1W
1S
1b
0`
1X
#410000
0*
0A
0B
11
#415000
1*
1A
1B
01
0a
1Y
1K
0>
1=
1;
0/
1.
1,
#420000
1!
0*
1C
0A
0B
11
1D
#425000
1*
1A
1B
01
1E
0R
0J
0W
0S
0b
1`
0X
#430000
0*
0A
0B
11
#435000
1*
1A
1B
01
1a
0Y
0T
0K
1>
0=
0<
0;
1/
0.
0-
0,
#440000
1"
0!
0*
1L
0C
0A
0B
11
1M
0D
#445000
1*
1A
1B
01
1N
0E
1S
1R
1J
0S
#450000
0*
0A
0B
11
#455000
1*
1A
1B
01
1K
1;
1,
#460000
1!
0*
1C
0A
0B
11
1D
#465000
1*
1A
1B
01
1E
0R
0J
1S
#470000
0*
0A
0B
11
#475000
1*
1A
1B
01
1T
0K
1<
0;
1-
0,
#480000
1#
0"
0!
0*
1U
0L
0C
0A
0B
11
0M
0D
#485000
1*
1A
1B
01
1V
0N
0E
1X
0S
1R
1J
1W
1S
0X
#490000
0*
0A
0B
11
#495000
1*
1A
1B
01
1K
1;
1,
#500000
1!
0*
1C
0A
0B
11
1D
#505000
1*
1A
1B
01
1E
0R
0J
0W
0S
1X
#510000
0*
0A
0B
11
#515000
1*
1A
1B
01
1Y
0T
0K
1=
0<
0;
1.
0-
0,
#520000
1"
0!
0*
1L
0C
0A
0B
11
1M
0D
#525000
1*
1A
1B
01
1N
0E
1S
1R
1J
0S
#530000
0*
0A
0B
11
#535000
1*
1A
1B
01
1K
1;
1,
#540000
1!
0*
1C
0A
0B
11
1D
#545000
1*
1A
1B
01
1E
0R
0J
1S
#550000
0*
0A
0B
11
#555000
1*
1A
1B
01
1T
0K
1<
0;
1-
0,
#560000
0"
0!
0*
0L
0C
0A
0B
11
0M
0D
#565000
1*
1A
1B
01
0N
0E
0S
1R
1J
1W
1S
0X
#570000
0*
0A
0B
11
#575000
1*
1A
1B
01
0Y
1K
0=
1;
0.
1,
#580000
1!
0*
1C
0A
0B
11
1D
#585000
1*
1A
1B
01
1E
0R
0J
0W
0S
1X
#590000
0*
0A
0B
11
#595000
1*
1A
1B
01
1Y
0T
0K
1=
0<
0;
1.
0-
0,
#600000
1"
0!
0*
1L
0C
0A
0B
11
1M
0D
#605000
1*
1A
1B
01
1N
0E
1S
1R
1J
0S
#610000
0*
0A
0B
11
#615000
1*
1A
1B
01
1K
1;
1,
#620000
1!
0*
1C
0A
0B
11
1D
#625000
1*
1A
1B
01
1E
0R
0J
1S
#630000
0*
0A
0B
11
#635000
1*
1A
1B
01
1T
0K
1<
0;
1-
0,
#640000
0$
0#
0"
0!
0*
0\
0U
0L
0C
0A
0B
11
0]
0M
0D
#645000
1*
1A
1B
01
0^
0V
0N
0E
0_
0X
0S
1R
1J
0`
1W
1S
1b
1`
1X
1c
#650000
0*
0A
0B
11
#655000
1*
1A
1B
01
1d
1K
1?
1;
1+
1,
#660000
1!
0*
1C
0A
0B
11
1D
#665000
1*
1A
1B
01
1E
0R
0J
0W
0S
0b
0`
0X
0c
1e
#670000
0*
0A
0B
11
#675000
1*
1A
1B
01
1f
0d
0a
0Y
0T
0K
1@
0?
0>
0=
0<
0;
10
0+
0/
0.
0-
0,
#680000
1"
0!
0*
1L
0C
0A
0B
11
1M
0D
#685000
1*
1A
1B
01
1N
0E
1S
1R
1J
0e
0S
#690000
0*
0A
0B
11
#695000
1*
1A
1B
01
0f
1K
0@
1;
00
1,
#700000
1!
0*
1C
0A
0B
11
1D
#705000
1*
1A
1B
01
1E
0R
0J
1S
1e
0e
#710000
0*
0A
0B
11
#715000
1*
1A
1B
01
1T
0K
1<
0;
1-
0,
#720000
0"
0!
0*
0L
0C
0A
0B
11
0M
0D
#725000
1*
1A
1B
01
0N
0E
0S
1R
1J
1W
1S
1b
1`
1X
1c
#730000
0*
0A
0B
11
#735000
1*
1A
1B
01
1d
1a
1Y
1K
1?
1>
1=
1;
1+
1/
1.
1,
#740000
1!
0*
1C
0A
0B
11
1D
#745000
1*
1A
1B
01
1E
0R
0J
0W
0S
0b
0`
0X
0c
1e
#750000
0*
0A
0B
11
#755000
1*
1A
1B
01
1f
0d
0a
0Y
0T
0K
1@
0?
0>
0=
0<
0;
10
0+
0/
0.
0-
0,
#760000
1"
0!
0*
1L
0C
0A
0B
11
1M
0D
#765000
1*
1A
1B
01
1N
0E
1S
1R
1J
0e
0S
#770000
0*
0A
0B
11
#775000
1*
1A
1B
01
0f
1K
0@
1;
00
1,
#780000
1!
0*
1C
0A
0B
11
1D
#785000
1*
1A
1B
01
1E
0R
0J
1S
1e
0e
#790000
0*
0A
0B
11
#795000
1*
1A
1B
01
1T
0K
1<
0;
1-
0,
#800000
1#
0"
0!
0*
1U
0L
0C
0A
0B
11
0M
0D
#805000
1*
1A
1B
01
1V
0N
0E
1X
0S
1R
1J
1W
1S
0X
#810000
0*
0A
0B
11
#815000
1*
1A
1B
01
1K
1;
1,
#820000
1!
0*
1C
0A
0B
11
1D
#825000
1*
1A
1B
01
1E
0R
0J
0W
0S
1X
1e
0e
#830000
0*
0A
0B
11
#835000
1*
1A
1B
01
1Y
0T
0K
1=
0<
0;
1.
0-
0,
#840000
1"
0!
0*
1L
0C
0A
0B
11
1M
0D
#845000
1*
1A
1B
01
1N
0E
1S
1R
1J
0S
#850000
0*
0A
0B
11
#855000
1*
1A
1B
01
1K
1;
1,
#860000
1!
0*
1C
0A
0B
11
1D
#865000
1*
1A
1B
01
1E
0R
0J
1S
#870000
0*
0A
0B
11
#875000
1*
1A
1B
01
1T
0K
1<
0;
1-
0,
#880000
0"
0!
0*
0L
0C
0A
0B
11
0M
0D
#885000
1*
1A
1B
01
0N
0E
0S
1R
1J
1W
1S
0X
#890000
0*
0A
0B
11
#895000
1*
1A
1B
01
0Y
1K
0=
1;
0.
1,
#900000
1!
0*
1C
0A
0B
11
1D
#905000
1*
1A
1B
01
1E
0R
0J
0W
0S
1X
1e
0e
#910000
0*
0A
0B
11
#915000
1*
1A
1B
01
1Y
0T
0K
1=
0<
0;
1.
0-
0,
#920000
1"
0!
0*
1L
0C
0A
0B
11
1M
0D
#925000
1*
1A
1B
01
1N
0E
1S
1R
1J
0S
#930000
0*
0A
0B
11
#935000
1*
1A
1B
01
1K
1;
1,
#940000
1!
0*
1C
0A
0B
11
1D
#945000
1*
1A
1B
01
1E
0R
0J
1S
#950000
0*
0A
0B
11
#955000
1*
1A
1B
01
1T
0K
1<
0;
1-
0,
#960000
1$
0#
0"
0!
0*
1\
0U
0L
0C
0A
0B
11
1]
0M
0D
#965000
1*
1A
1B
01
1^
0V
0N
0E
1_
0X
0S
1R
1J
1`
1W
1S
1b
0`
1X
#970000
0*
0A
0B
11
#975000
1*
1A
1B
01
1K
1;
1,
#980000
1!
0*
1C
0A
0B
11
1D
#985000
1*
1A
1B
01
1E
0R
0J
0W
0S
0b
1`
0X
#990000
0*
0A
0B
11
#995000
1*
1A
1B
01
1a
0Y
0T
0K
1>
0=
0<
0;
1/
0.
0-
0,
