PARTE_C/simulation/qsim/PARTE_C.msim.vcd
$comment
	File created using the following command:
		vcd file PARTE_C.msim.vcd -direction
$end
$date
	Thu Oct 24 21:20:15 2024
$end
$version
	ModelSim Version 10.1d
$end
$timescale
	1ps
$end
$scope module PARTE_C_vlg_vec_tst $end
$var reg 1 ! A0 $end
$var reg 1 " A1 $end
$var reg 1 # A2 $end
$var reg 1 $ A3 $end
$var reg 1 % ASINC $end
$var reg 1 & B0 $end
$var reg 1 ' B1 $end
$var reg 1 ( B2 $end
$var reg 1 ) B3 $end
$var reg 1 * Bin $end
$var reg 1 + CLK $end
$var wire 1 , B $end
$var wire 1 - C0 $end
$var wire 1 . C1 $end
$var wire 1 / C2 $end
$var wire 1 0 C3 $end
$var wire 1 1 Z $end
$var wire 1 2 sampler $end
$scope module i1 $end
$var wire 1 3 gnd $end
$var wire 1 4 vcc $end
$var wire 1 5 unknown $end
$var tri1 1 6 devclrn $end
$var tri1 1 7 devpor $end
$var tri1 1 8 devoe $end
$var wire 1 9 inst7~q $end
$var wire 1 : inst3|Bout~1_combout $end
$var wire 1 ; A3~input_o $end
$var wire 1 < C0~output_o $end
$var wire 1 = C1~output_o $end
$var wire 1 > C2~output_o $end
$var wire 1 ? C3~output_o $end
$var wire 1 @ B~output_o $end
$var wire 1 A Z~output_o $end
$var wire 1 B CLK~input_o $end
$var wire 1 C CLK~inputclkctrl_outclk $end
$var wire 1 D Bin~input_o $end
$var wire 1 E inst17~feeder_combout $end
$var wire 1 F ASINC~input_o $end
$var wire 1 G ASINC~inputclkctrl_outclk $end
$var wire 1 H inst17~q $end
$var wire 1 I A0~input_o $end
$var wire 1 J inst2~q $end
$var wire 1 K B0~input_o $end
$var wire 1 L inst8~feeder_combout $end
$var wire 1 M inst8~q $end
$var wire 1 N inst|Diff~0_combout $end
$var wire 1 O inst12~q $end
$var wire 1 P B1~input_o $end
$var wire 1 Q inst9~q $end
$var wire 1 R inst|Bout~0_combout $end
$var wire 1 S inst1|Diff~combout $end
$var wire 1 T inst13~q $end
$var wire 1 U B2~input_o $end
$var wire 1 V inst10~feeder_combout $end
$var wire 1 W inst10~q $end
$var wire 1 X A2~input_o $end
$var wire 1 Y inst6~feeder_combout $end
$var wire 1 Z inst6~q $end
$var wire 1 [ inst3|Diff~0_combout $end
$var wire 1 \ inst3|Diff~combout $end
$var wire 1 ] inst14~q $end
$var wire 1 ^ B3~input_o $end
$var wire 1 _ inst11~q $end
$var wire 1 ` inst3|Bout~0_combout $end
$var wire 1 a A1~input_o $end
$var wire 1 b inst5~q $end
$var wire 1 c inst3|Bout~2_combout $end
$var wire 1 d inst4|Diff~combout $end
$var wire 1 e inst15~q $end
$var wire 1 f inst4|Bout~0_combout $end
$var wire 1 g inst16~q $end
$var wire 1 h inst18~combout $end
$upscope $end
$upscope $end
$enddefinitions $end
#0
$dumpvars
1!
1"
1#
1$
1%
1&
0'
0(
0)
0*
0+
x,
x-
x.
x/
x0
x1
x2
03
14
x5
16
17
18
09
x:
1;
x<
x=
x>
x?
x@
xA
0B
xC
0D
xE
1F
xG
0H
1I
0J
1K
xL
0M
xN
0O
0P
0Q
xR
xS
0T
0U
xV
0W
1X
xY
0Z
x[
x\
0]
0^
0_
x`
1a
0b
xc
xd
0e
xf
0g
xh
$end
#173
0C
#187
1G
#502
1:
#643
0N
#820
0`
#821
0[
#975
0R
#1362
0S
#1365
0\
0c
#1742
0f
#1743
0d
#2701
0>
0/
#2942
0=
0.
#3044
0h
#3057
0@
0,
#3380
0E
#3500
0<
0-
#3705
0?
00
#3720
1Y
#3867
0V
#3904
1L
#5000
1+
02
#5819
1B
#6006
1C
#6796
1A
11
#8410
19
1J
1M
1Z
1b
#8818
0:
#8819
1N
#8836
1[
#9001
0N
#9308
1S
#9324
1\
#9576
1d
#9864
1h
#10000
0+
12
#10924
0B
#11097
0C
#13793
0A
01
#15000
1+
02
#15819
1B
#16006
1C
#18410
1]
1e
#18843
1T
#20000
0+
12
#20924
0B
#21097
0C
#21131
1>
1/
#21832
1=
1.
#22243
1?
10
#25000
1+
02
#25819
1B
#26006
1C
#30000
0+
12
#30924
0B
#31097
0C
#35000
1+
02
#35819
1B
#36006
1C
#40000
0+
12
#40924
0B
#41097
0C
#45000
1+
02
#45819
1B
#46006
1C
#50000
0+
12
#50924
0B
#51097
0C
#55000
1+
02
#55819
1B
#56006
1C
#60000
0+
12
#60924
0B
#61097
0C
#65000
1+
02
#65819
1B
#66006
1C
#70000
0+
12
#70924
0B
#71097
0C
#75000
1+
02
#75819
1B
#76006
1C
#80000
0+
12
#80924
0B
#81097
0C
#85000
1+
02
#85819
1B
#86006
1C
#90000
0+
12
#90924
0B
#91097
0C
#95000
1+
02
#95819
1B
#96006
1C
#100000
0+
12
#100924
0B
#101097
0C
#105000
1+
02
#105819
1B
#106006
1C
#110000
0+
12
#110924
0B
#111097
0C
#115000
1+
02
#115819
1B
#116006
1C
#120000
0+
12
#120924
0B
#121097
0C
#125000
1+
02
#125819
1B
#126006
1C
#130000
0+
12
#130924
0B
#131097
0C
#135000
1+
02
#135819
1B
#136006
1C
#140000
0+
12
#140924
0B
#141097
0C
#145000
1+
02
#145819
1B
#146006
1C
#150000
0+
12
#150924
0B
#151097
0C
#155000
1+
02
#155819
1B
#156006
1C
#160000
0+
12
#160924
0B
#161097
0C
#165000
1+
02
#165819
1B
#166006
1C
#170000
0+
12
#170924
0B
#171097
0C
#175000
1+
02
#175819
1B
#176006
1C
#180000
0+
12
#180924
0B
#181097
0C
#185000
1+
02
#185819
1B
#186006
1C
#190000
0+
12
#190924
0B
#191097
0C
#195000
1+
02
#195819
1B
#196006
1C
#200000
0+
12
#200924
0B
#201097
0C
#205000
1+
02
#205819
1B
#206006
1C
#210000
0+
12
#210924
0B
#211097
0C
#215000
1+
02
#215819
1B
#216006
1C
#220000
0+
12
#220924
0B
#221097
0C
#225000
1+
02
#225819
1B
#226006
1C
#230000
0+
12
#230924
0B
#231097
0C
#235000
1+
02
#235819
1B
#236006
1C
#240000
0+
12
#240924
0B
#241097
0C
#245000
1+
02
#245819
1B
#246006
1C
#250000
0+
12
#250924
0B
#251097
0C
#255000
1+
02
#255819
1B
#256006
1C
#260000
0+
12
#260924
0B
#261097
0C
#265000
1+
02
#265819
1B
#266006
1C
#270000
0+
12
#270924
0B
#271097
0C
#275000
1+
02
#275819
1B
#276006
1C
#280000
0+
12
#280924
0B
#281097
0C
#285000
1+
02
#285819
1B
#286006
1C
#290000
0+
12
#290924
0B
#291097
0C
#295000
1+
02
#295819
1B
#296006
1C
#300000
0+
12
#300924
0B
#301097
0C
#305000
1+
02
#305819
1B
#306006
1C
#310000
0+
12
#310924
0B
#311097
0C
#315000
1+
02
#315819
1B
#316006
1C
#320000
0+
12
#320924
0B
#321097
0C
#325000
1+
02
#325819
1B
#326006
1C
#330000
0+
12
#330924
0B
#331097
0C
#335000
1+
02
#335819
1B
#336006
1C
#340000
0+
12
#340924
0B
#341097
0C
#345000
1+
02
#345819
1B
#346006
1C
#350000
0+
12
#350924
0B
#351097
0C
#355000
1+
02
#355819
1B
#356006
1C
#360000
0+
12
#360924
0B
#361097
0C
#365000
1+
02
#365819
1B
#366006
1C
#370000
0+
12
#370924
0B
#371097
0C
#375000
1+
02
#375819
1B
#376006
1C
#380000
0+
12
#380924
0B
#381097
0C
#385000
1+
02
#385819
1B
#386006
1C
#390000
0+
12
#390924
0B
#391097
0C
#395000
1+
02
#395819
1B
#396006
1C
#400000
0+
12
#400924
0B
#401097
0C
#405000
1+
02
#405819
1B
#406006
1C
#410000
0+
12
#410924
0B
#411097
0C
#415000
1+
02
#415819
1B
#416006
1C
#420000
0+
12
#420924
0B
#421097
0C
#425000
1+
02
#425819
1B
#426006
1C
#430000
0+
12
#430924
0B
#431097
0C
#435000
1+
02
#435819
1B
#436006
1C
#440000
0+
12
#440924
0B
#441097
0C
#445000
1+
02
#445819
1B
#446006
1C
#450000
0+
12
#450924
0B
#451097
0C
#455000
1+
02
#455819
1B
#456006
1C
#460000
0+
12
#460924
0B
#461097
0C
#465000
1+
02
#465819
1B
#466006
1C
#470000
0+
12
#470924
0B
#471097
0C
#475000
1+
02
#475819
1B
#476006
1C
#480000
0+
12
#480924
0B
#481097
0C
#485000
1+
02
#485819
1B
#486006
1C
#490000
0+
12
#490924
0B
#491097
0C
#495000
1+
02
#495819
1B
#496006
1C
#500000
0+
12
#500924
0B
#501097
0C
#505000
1+
02
#505819
1B
#506006
1C
#510000
0+
12
#510924
0B
#511097
0C
#515000
1+
02
#515819
1B
#516006
1C
#520000
0+
12
#520924
0B
#521097
0C
#525000
1+
02
#525819
1B
#526006
1C
#530000
0+
12
#530924
0B
#531097
0C
#535000
1+
02
#535819
1B
#536006
1C
#540000
0+
12
#540924
0B
#541097
0C
#545000
1+
02
#545819
1B
#546006
1C
#550000
0+
12
#550924
0B
#551097
0C
#555000
1+
02
#555819
1B
#556006
1C
#560000
0+
12
#560924
0B
#561097
0C
#565000
1+
02
#565819
1B
#566006
1C
#570000
0+
12
#570924
0B
#571097
0C
#575000
1+
02
#575819
1B
#576006
1C
#580000
0+
12
#580924
0B
#581097
0C
#585000
1+
02
#585819
1B
#586006
1C
#590000
0+
12
#590924
0B
#591097
0C
#595000
1+
02
#595819
1B
#596006
1C
#600000
0+
12
#600924
0B
#601097
0C
#605000
1+
02
#605819
1B
#606006
1C
#610000
0+
12
#610924
0B
#611097
0C
#615000
1+
02
#615819
1B
#616006
1C
#620000
0+
12
#620924
0B
#621097
0C
#625000
1+
02
#625819
1B
#626006
1C
#630000
0+
12
#630924
0B
#631097
0C
#635000
1+
02
#635819
1B
#636006
1C
#640000
0+
12
#640924
0B
#641097
0C
#645000
1+
02
#645819
1B
#646006
1C
#650000
0+
12
#650924
0B
#651097
0C
#655000
1+
02
#655819
1B
#656006
1C
#660000
0+
12
#660924
0B
#661097
0C
#665000
1+
02
#665819
1B
#666006
1C
#670000
0+
12
#670924
0B
#671097
0C
#675000
1+
02
#675819
1B
#676006
1C
#680000
0+
12
#680924
0B
#681097
0C
#685000
1+
02
#685819
1B
#686006
1C
#690000
0+
12
#690924
0B
#691097
0C
#695000
1+
02
#695819
1B
#696006
1C
#700000
0+
12
#700924
0B
#701097
0C
#705000
1+
02
#705819
1B
#706006
1C
#710000
0+
12
#710924
0B
#711097
0C
#715000
1+
02
#715819
1B
#716006
1C
#720000
0+
12
#720924
0B
#721097
0C
#725000
1+
02
#725819
1B
#726006
1C
#730000
0+
12
#730924
0B
#731097
0C
#735000
1+
02
#735819
1B
#736006
1C
#740000
0+
12
#740924
0B
#741097
0C
#745000
1+
02
#745819
1B
#746006
1C
#750000
0+
12
#750924
0B
#751097
0C
#755000
1+
02
#755819
1B
#756006
1C
#760000
0+
12
#760924
0B
#761097
0C
#765000
1+
02
#765819
1B
#766006
1C
#770000
0+
12
#770924
0B
#771097
0C
#775000
1+
02
#775819
1B
#776006
1C
#780000
0+
12
#780924
0B
#781097
0C
#785000
1+
02
#785819
1B
#786006
1C
#790000
0+
12
#790924
0B
#791097
0C
#795000
1+
02
#795819
1B
#796006
1C
#800000
0+
12
#800924
0B
#801097
0C
#805000
1+
02
#805819
1B
#806006
1C
#810000
0+
12
#810924
0B
#811097
0C
#815000
1+
02
#815819
1B
#816006
1C
#820000
0+
12
#820924
0B
#821097
0C
#825000
1+
02
#825819
1B
#826006
1C
#830000
0+
12
#830924
0B
#831097
0C
#835000
1+
02
#835819
1B
#836006
1C
#840000
0+
12
#840924
0B
#841097
0C
#845000
1+
02
#845819
1B
#846006
1C
#850000
0+
12
#850924
0B
#851097
0C
#855000
1+
02
#855819
1B
#856006
1C
#860000
0+
12
#860924
0B
#861097
0C
#865000
1+
02
#865819
1B
#866006
1C
#870000
0+
12
#870924
0B
#871097
0C
#875000
1+
02
#875819
1B
#876006
1C
#880000
0+
12
#880924
0B
#881097
0C
#885000
1+
02
#885819
1B
#886006
1C
#890000
0+
12
#890924
0B
#891097
0C
#895000
1+
02
#895819
1B
#896006
1C
#900000
0+
12
#900924
0B
#901097
0C
#905000
1+
02
#905819
1B
#906006
1C
#910000
0+
12
#910924
0B
#911097
0C
#915000
1+
02
#915819
1B
#916006
1C
#920000
0+
12
#920924
0B
#921097
0C
#925000
1+
02
#925819
1B
#926006
1C
#930000
0+
12
#930924
0B
#931097
0C
#935000
1+
02
#935819
1B
#936006
1C
#940000
0+
12
#940924
0B
#941097
0C
#945000
1+
02
#945819
1B
#946006
1C
#950000
0+
12
#950924
0B
#951097
0C
#955000
1+
02
#955819
1B
#956006
1C
#960000
0+
12
#960924
0B
#961097
0C
#965000
1+
02
#965819
1B
#966006
1C
#970000
0+
12
#970924
0B
#971097
0C
#975000
1+
02
#975819
1B
#976006
1C
#980000
0+
12
#980924
0B
#981097
0C
#985000
1+
02
#985819
1B
#986006
1C
#990000
0+
12
#990924
0B
#991097
0C
#995000
1+
02
#995819
1B
