PARTE_A/simulation/qsim/PARTE_A.msim.vcd
$comment
	File created using the following command:
		vcd file PARTE_A.msim.vcd -direction
$end
$date
	Wed Nov 06 11:47:00 2024
$end
$version
	ModelSim Version 10.1d
$end
$timescale
	1ps
$end
$scope module Block1_vlg_vec_tst $end
$var reg 1 ! SW1 $end
$var reg 1 " SW2 $end
$var reg 1 # SW3 $end
$var wire 1 $ LED $end
$var wire 1 % sampler $end
$scope module i1 $end
$var wire 1 & gnd $end
$var wire 1 ' vcc $end
$var wire 1 ( unknown $end
$var tri1 1 ) devclrn $end
$var tri1 1 * devpor $end
$var tri1 1 + devoe $end
$var wire 1 , LED~output_o $end
$var wire 1 - SW1~input_o $end
$var wire 1 . SW2~input_o $end
$var wire 1 / SW3~input_o $end
$var wire 1 0 inst4~combout $end
$upscope $end
$upscope $end
$enddefinitions $end
#0
$dumpvars
0!
0"
0#
0$
x%
0&
1'
x(
1)
1*
1+
0,
0-
0.
0/
00
$end
#2500
1#
1/
0%
10
1,
1$
#5000
1"
0#
1.
0/
1%
#7500
1#
1/
0%
#10000
1!
0"
0#
1-
0.
0/
1%
#12500
1#
1/
0%
#15000
1"
0#
1.
0/
1%
00
0,
0$
#17500
1#
1/
0%
#20000
0!
0"
0#
0-
0.
0/
1%
#22500
1#
1/
0%
10
1,
1$
#25000
1"
0#
1.
0/
1%
#27500
1#
1/
0%
#30000
1!
0"
0#
1-
0.
0/
1%
#32500
1#
1/
0%
#35000
1"
0#
1.
0/
1%
00
0,
0$
#37500
1#
1/
0%
#40000
0!
0"
0#
0-
0.
0/
1%
#42500
1#
1/
0%
10
1,
1$
#45000
1"
0#
1.
0/
1%
#47500
1#
1/
0%
#50000
1!
0"
0#
1-
0.
0/
1%
#52500
1#
1/
0%
#55000
1"
0#
1.
0/
1%
00
0,
0$
#57500
1#
1/
0%
#60000
0!
0"
0#
0-
0.
0/
1%
#62500
1#
1/
0%
10
1,
1$
#65000
1"
0#
1.
0/
1%
#67500
1#
1/
0%
#70000
1!
0"
0#
1-
0.
0/
1%
#72500
1#
1/
0%
#75000
1"
0#
1.
0/
1%
00
0,
0$
#77500
1#
1/
0%
#80000
0!
0"
0#
0-
0.
0/
1%
#82500
1#
1/
0%
10
1,
1$
#85000
1"
0#
1.
0/
1%
#87500
1#
1/
0%
#90000
1!
0"
0#
1-
0.
0/
1%
#92500
1#
1/
0%
#95000
1"
0#
1.
0/
1%
00
0,
0$
#97500
1#
1/
0%
#100000
0!
0"
0#
0-
0.
0/
1%
#102500
1#
1/
0%
10
1,
1$
#105000
1"
0#
1.
0/
1%
#107500
1#
1/
0%
#110000
1!
0"
0#
1-
0.
0/
1%
#112500
1#
1/
0%
#115000
1"
0#
1.
0/
1%
00
0,
0$
#117500
1#
1/
0%
#120000
0!
0"
0#
0-
0.
0/
1%
#122500
1#
1/
0%
10
1,
1$
#125000
1"
0#
1.
0/
1%
#127500
1#
1/
0%
#130000
1!
0"
0#
1-
0.
0/
1%
#132500
1#
1/
0%
#135000
1"
0#
1.
0/
1%
00
0,
0$
#137500
1#
1/
0%
#140000
0!
0"
0#
0-
0.
0/
1%
#142500
1#
1/
0%
10
1,
1$
#145000
1"
0#
1.
0/
1%
#147500
1#
1/
0%
#150000
1!
0"
0#
1-
0.
0/
1%
#152500
1#
1/
0%
#155000
1"
0#
1.
0/
1%
00
0,
0$
#157500
1#
1/
0%
#160000
0!
0"
0#
0-
0.
0/
1%
#162500
1#
1/
0%
10
1,
1$
#165000
1"
0#
1.
0/
1%
#167500
1#
1/
0%
#170000
1!
0"
0#
1-
0.
0/
1%
#172500
1#
1/
0%
#175000
1"
0#
1.
0/
1%
00
0,
0$
#177500
1#
1/
0%
#180000
0!
0"
0#
0-
0.
0/
1%
#182500
1#
1/
0%
10
1,
1$
#185000
1"
0#
1.
0/
1%
#187500
1#
1/
0%
#190000
1!
0"
0#
1-
0.
0/
1%
#192500
1#
1/
0%
#195000
1"
0#
1.
0/
1%
00
0,
0$
#197500
1#
1/
0%
#200000
0!
0"
0#
0-
0.
0/
1%
#202500
1#
1/
0%
10
1,
1$
#205000
1"
0#
1.
0/
1%
#207500
1#
1/
0%
#210000
1!
0"
0#
1-
0.
0/
1%
#212500
1#
1/
0%
#215000
1"
0#
1.
0/
1%
00
0,
0$
#217500
1#
1/
0%
#220000
0!
0"
0#
0-
0.
0/
1%
#222500
1#
1/
0%
10
1,
1$
#225000
1"
0#
1.
0/
1%
#227500
1#
1/
0%
#230000
1!
0"
0#
1-
0.
0/
1%
#232500
1#
1/
0%
#235000
1"
0#
1.
0/
1%
00
0,
0$
#237500
1#
1/
0%
#240000
0!
0"
0#
0-
0.
0/
1%
#242500
1#
1/
0%
10
1,
1$
#245000
1"
0#
1.
0/
1%
#247500
1#
1/
0%
#250000
1!
0"
0#
1-
0.
0/
1%
#252500
1#
1/
0%
#255000
1"
0#
1.
0/
1%
00
0,
0$
#257500
1#
1/
0%
#260000
0!
0"
0#
0-
0.
0/
1%
#262500
1#
1/
0%
10
1,
1$
#265000
1"
0#
1.
0/
1%
#267500
1#
1/
0%
#270000
1!
0"
0#
1-
0.
0/
1%
#272500
1#
1/
0%
#275000
1"
0#
1.
0/
1%
00
0,
0$
#277500
1#
1/
0%
#280000
0!
0"
0#
0-
0.
0/
1%
#282500
1#
1/
0%
10
1,
1$
#285000
1"
0#
1.
0/
1%
#287500
1#
1/
0%
#290000
1!
0"
0#
1-
0.
0/
1%
#292500
1#
1/
0%
#295000
1"
0#
1.
0/
1%
00
0,
0$
#297500
1#
1/
0%
#300000
0!
0"
0#
0-
0.
0/
1%
#302500
1#
1/
0%
10
1,
1$
#305000
1"
0#
1.
0/
1%
#307500
1#
1/
0%
#310000
1!
0"
0#
1-
0.
0/
1%
#312500
1#
1/
0%
#315000
1"
0#
1.
0/
1%
00
0,
0$
#317500
1#
1/
0%
#320000
0!
0"
0#
0-
0.
0/
1%
#322500
1#
1/
0%
10
1,
1$
#325000
1"
0#
1.
0/
1%
#327500
1#
1/
0%
#330000
1!
0"
0#
1-
0.
0/
1%
#332500
1#
1/
0%
#335000
1"
0#
1.
0/
1%
00
0,
0$
#337500
1#
1/
0%
#340000
0!
0"
0#
0-
0.
0/
1%
#342500
1#
1/
0%
10
1,
1$
#345000
1"
0#
1.
0/
1%
#347500
1#
1/
0%
#350000
1!
0"
0#
1-
0.
0/
1%
#352500
1#
1/
0%
#355000
1"
0#
1.
0/
1%
00
0,
0$
#357500
1#
1/
0%
#360000
0!
0"
0#
0-
0.
0/
1%
#362500
1#
1/
0%
10
1,
1$
#365000
1"
0#
1.
0/
1%
#367500
1#
1/
0%
#370000
1!
0"
0#
1-
0.
0/
1%
#372500
1#
1/
0%
#375000
1"
0#
1.
0/
1%
00
0,
0$
#377500
1#
1/
0%
#380000
0!
0"
0#
0-
0.
0/
1%
#382500
1#
1/
0%
10
1,
1$
#385000
1"
0#
1.
0/
1%
#387500
1#
1/
0%
#390000
1!
0"
0#
1-
0.
0/
1%
#392500
1#
1/
0%
#395000
1"
0#
1.
0/
1%
00
0,
0$
#397500
1#
1/
0%
#400000
0!
0"
0#
0-
0.
0/
1%
#402500
1#
1/
0%
10
1,
1$
#405000
1"
0#
1.
0/
1%
#407500
1#
1/
0%
#410000
1!
0"
0#
1-
0.
0/
1%
#412500
1#
1/
0%
#415000
1"
0#
1.
0/
1%
00
0,
0$
#417500
1#
1/
0%
#420000
0!
0"
0#
0-
0.
0/
1%
#422500
1#
1/
0%
10
1,
1$
#425000
1"
0#
1.
0/
1%
#427500
1#
1/
0%
#430000
1!
0"
0#
1-
0.
0/
1%
#432500
1#
1/
0%
#435000
1"
0#
1.
0/
1%
00
0,
0$
#437500
1#
1/
0%
#440000
0!
0"
0#
0-
0.
0/
1%
#442500
1#
1/
0%
10
1,
1$
#445000
1"
0#
1.
0/
1%
#447500
1#
1/
0%
#450000
1!
0"
0#
1-
0.
0/
1%
#452500
1#
1/
0%
#455000
1"
0#
1.
0/
1%
00
0,
0$
#457500
1#
1/
0%
#460000
0!
0"
0#
0-
0.
0/
1%
#462500
1#
1/
0%
10
1,
1$
#465000
1"
0#
1.
0/
1%
#467500
1#
1/
0%
#470000
1!
0"
0#
1-
0.
0/
1%
#472500
1#
1/
0%
#475000
1"
0#
1.
0/
1%
00
0,
0$
#477500
1#
1/
0%
#480000
0!
0"
0#
0-
0.
0/
1%
#482500
1#
1/
0%
10
1,
1$
#485000
1"
0#
1.
0/
1%
#487500
1#
1/
0%
#490000
1!
0"
0#
1-
0.
0/
1%
#492500
1#
1/
0%
#495000
1"
0#
1.
0/
1%
00
0,
0$
#497500
1#
1/
0%
#500000
0!
0"
0#
0-
0.
0/
1%
#502500
1#
1/
0%
10
1,
1$
#505000
1"
0#
1.
0/
1%
#507500
1#
1/
0%
#510000
1!
0"
0#
1-
0.
0/
1%
#512500
1#
1/
0%
#515000
1"
0#
1.
0/
1%
00
0,
0$
#517500
1#
1/
0%
#520000
0!
0"
0#
0-
0.
0/
1%
#522500
1#
1/
0%
10
1,
1$
#525000
1"
0#
1.
0/
1%
#527500
1#
1/
0%
#530000
1!
0"
0#
1-
0.
0/
1%
#532500
1#
1/
0%
#535000
1"
0#
1.
0/
1%
00
0,
0$
#537500
1#
1/
0%
#540000
0!
0"
0#
0-
0.
0/
1%
#542500
1#
1/
0%
10
1,
1$
#545000
1"
0#
1.
0/
1%
#547500
1#
1/
0%
#550000
1!
0"
0#
1-
0.
0/
1%
#552500
1#
1/
0%
#555000
1"
0#
1.
0/
1%
00
0,
0$
#557500
1#
1/
0%
#560000
0!
0"
0#
0-
0.
0/
1%
#562500
1#
1/
0%
10
1,
1$
#565000
1"
0#
1.
0/
1%
#567500
1#
1/
0%
#570000
1!
0"
0#
1-
0.
0/
1%
#572500
1#
1/
0%
#575000
1"
0#
1.
0/
1%
00
0,
0$
#577500
1#
1/
0%
#580000
0!
0"
0#
0-
0.
0/
1%
#582500
1#
1/
0%
10
1,
1$
#585000
1"
0#
1.
0/
1%
#587500
1#
1/
0%
#590000
1!
0"
0#
1-
0.
0/
1%
#592500
1#
1/
0%
#595000
1"
0#
1.
0/
1%
00
0,
0$
#597500
1#
1/
0%
#600000
0!
0"
0#
0-
0.
0/
1%
#602500
1#
1/
0%
10
1,
1$
#605000
1"
0#
1.
0/
1%
#607500
1#
1/
0%
#610000
1!
0"
0#
1-
0.
0/
1%
#612500
1#
1/
0%
#615000
1"
0#
1.
0/
1%
00
0,
0$
#617500
1#
1/
0%
#620000
0!
0"
0#
0-
0.
0/
1%
#622500
1#
1/
0%
10
1,
1$
#625000
1"
0#
1.
0/
1%
#627500
1#
1/
0%
#630000
1!
0"
0#
1-
0.
0/
1%
#632500
1#
1/
0%
#635000
1"
0#
1.
0/
1%
00
0,
0$
#637500
1#
1/
0%
#640000
0!
0"
0#
0-
0.
0/
1%
#642500
1#
1/
0%
10
1,
1$
#645000
1"
0#
1.
0/
1%
#647500
1#
1/
0%
#650000
1!
0"
0#
1-
0.
0/
1%
#652500
1#
1/
0%
#655000
1"
0#
1.
0/
1%
00
0,
0$
#657500
1#
1/
0%
#660000
0!
0"
0#
0-
0.
0/
1%
#662500
1#
1/
0%
10
1,
1$
#665000
1"
0#
1.
0/
1%
#667500
1#
1/
0%
#670000
1!
0"
0#
1-
0.
0/
1%
#672500
1#
1/
0%
#675000
1"
0#
1.
0/
1%
00
0,
0$
#677500
1#
1/
0%
#680000
0!
0"
0#
0-
0.
0/
1%
#682500
1#
1/
0%
10
1,
1$
#685000
1"
0#
1.
0/
1%
#687500
1#
1/
0%
#690000
1!
0"
0#
1-
0.
0/
1%
#692500
1#
1/
0%
#695000
1"
0#
1.
0/
1%
00
0,
0$
#697500
1#
1/
0%
#700000
0!
0"
0#
0-
0.
0/
1%
#702500
1#
1/
0%
10
1,
1$
#705000
1"
0#
1.
0/
1%
#707500
1#
1/
0%
#710000
1!
0"
0#
1-
0.
0/
1%
#712500
1#
1/
0%
#715000
1"
0#
1.
0/
1%
00
0,
0$
#717500
1#
1/
0%
#720000
0!
0"
0#
0-
0.
0/
1%
#722500
1#
1/
0%
10
1,
1$
#725000
1"
0#
1.
0/
1%
#727500
1#
1/
0%
#730000
1!
0"
0#
1-
0.
0/
1%
#732500
1#
1/
0%
#735000
1"
0#
1.
0/
1%
00
0,
0$
#737500
1#
1/
0%
#740000
0!
0"
0#
0-
0.
0/
1%
#742500
1#
1/
0%
10
1,
1$
#745000
1"
0#
1.
0/
1%
#747500
1#
1/
0%
#750000
1!
0"
0#
1-
0.
0/
1%
#752500
1#
1/
0%
#755000
1"
0#
1.
0/
1%
00
0,
0$
#757500
1#
1/
0%
#760000
0!
0"
0#
0-
0.
0/
1%
#762500
1#
1/
0%
10
1,
1$
#765000
1"
0#
1.
0/
1%
#767500
1#
1/
0%
#770000
1!
0"
0#
1-
0.
0/
1%
#772500
1#
1/
0%
#775000
1"
0#
1.
0/
1%
00
0,
0$
#777500
1#
1/
0%
#780000
0!
0"
0#
0-
0.
0/
1%
#782500
1#
1/
0%
10
1,
1$
#785000
1"
0#
1.
0/
1%
#787500
1#
1/
0%
#790000
1!
0"
0#
1-
0.
0/
1%
#792500
1#
1/
0%
#795000
1"
0#
1.
0/
1%
00
0,
0$
#797500
1#
1/
0%
#800000
0!
0"
0#
0-
0.
0/
1%
#802500
1#
1/
0%
10
1,
1$
#805000
1"
0#
1.
0/
1%
#807500
1#
1/
0%
#810000
1!
0"
0#
1-
0.
0/
1%
#812500
1#
1/
0%
#815000
1"
0#
1.
0/
1%
00
0,
0$
#817500
1#
1/
0%
#820000
0!
0"
0#
0-
0.
0/
1%
#822500
1#
1/
0%
10
1,
1$
#825000
1"
0#
1.
0/
1%
#827500
1#
1/
0%
#830000
1!
0"
0#
1-
0.
0/
1%
#832500
1#
1/
0%
#835000
1"
0#
1.
0/
1%
00
0,
0$
#837500
1#
1/
0%
#840000
0!
0"
0#
0-
0.
0/
1%
#842500
1#
1/
0%
10
1,
1$
#845000
1"
0#
1.
0/
1%
#847500
1#
1/
0%
#850000
1!
0"
0#
1-
0.
0/
1%
#852500
1#
1/
0%
#855000
1"
0#
1.
0/
1%
00
0,
0$
#857500
1#
1/
0%
#860000
0!
0"
0#
0-
0.
0/
1%
#862500
1#
1/
0%
10
1,
1$
#865000
1"
0#
1.
0/
1%
#867500
1#
1/
0%
#870000
1!
0"
0#
1-
0.
0/
1%
#872500
1#
1/
0%
#875000
1"
0#
1.
0/
1%
00
0,
0$
#877500
1#
1/
0%
#880000
0!
0"
0#
0-
0.
0/
1%
#882500
1#
1/
0%
10
1,
1$
#885000
1"
0#
1.
0/
1%
#887500
1#
1/
0%
#890000
1!
0"
0#
1-
0.
0/
1%
#892500
1#
1/
0%
#895000
1"
0#
1.
0/
1%
00
0,
0$
#897500
1#
1/
0%
#900000
0!
0"
0#
0-
0.
0/
1%
#902500
1#
1/
0%
10
1,
1$
#905000
1"
0#
1.
0/
1%
#907500
1#
1/
0%
#910000
1!
0"
0#
1-
0.
0/
1%
#912500
1#
1/
0%
#915000
1"
0#
1.
0/
1%
00
0,
0$
#917500
1#
1/
0%
#920000
0!
0"
0#
0-
0.
0/
1%
#922500
1#
1/
0%
10
1,
1$
#925000
1"
0#
1.
0/
1%
#927500
1#
1/
0%
#930000
1!
0"
0#
1-
0.
0/
1%
#932500
1#
1/
0%
#935000
1"
0#
1.
0/
1%
00
0,
0$
#937500
1#
1/
0%
#940000
0!
0"
0#
0-
0.
0/
1%
#942500
1#
1/
0%
10
1,
1$
#945000
1"
0#
1.
0/
1%
#947500
1#
1/
0%
#950000
1!
0"
0#
1-
0.
0/
1%
#952500
1#
1/
0%
#955000
1"
0#
1.
0/
1%
00
0,
0$
#957500
1#
1/
0%
#960000
0!
0"
0#
0-
0.
0/
1%
#962500
1#
1/
0%
10
1,
1$
#965000
1"
0#
1.
0/
1%
#967500
1#
1/
0%
#970000
1!
0"
0#
1-
0.
0/
1%
#972500
1#
1/
0%
#975000
1"
0#
1.
0/
1%
00
0,
0$
#977500
1#
1/
0%
#980000
0!
0"
0#
0-
0.
0/
1%
#982500
1#
1/
0%
10
1,
1$
#985000
1"
0#
1.
0/
1%
#987500
1#
1/
0%
#990000
1!
0"
0#
1-
0.
0/
1%
#992500
1#
1/
0%
#995000
1"
0#
1.
0/
1%
00
0,
0$
#997500
1#
1/
0%
