PARTE_E/simulation/qsim/PARTE_E.msim.vcd
$comment
	File created using the following command:
		vcd file PARTE_E.msim.vcd -direction
$end
$date
	Fri Nov 01 20:03:57 2024
$end
$version
	ModelSim Version 10.1d
$end
$timescale
	1ps
$end
$scope module PARTE_E_vlg_vec_tst $end
$var reg 1 ! clock $end
$var reg 1 " fin_dato $end
$var reg 1 # fin_dir $end
$var reg 1 $ reset $end
$var reg 1 % SDA $end
$var reg 1 & soy $end
$var wire 1 ' Hab_ACK $end
$var wire 1 ( Hab_Dat $end
$var wire 1 ) Hab_Dir $end
$var wire 1 * sampler $end
$scope module i1 $end
$var wire 1 + gnd $end
$var wire 1 , vcc $end
$var wire 1 - unknown $end
$var tri1 1 . devclrn $end
$var tri1 1 / devpor $end
$var tri1 1 0 devoe $end
$var wire 1 1 fin_dir~input_o $end
$var wire 1 2 clock~input_o $end
$var wire 1 3 SDA~input_o $end
$var wire 1 4 clock~inputclkctrl_outclk $end
$var wire 1 5 Hab_Dir~output_o $end
$var wire 1 6 Hab_Dat~output_o $end
$var wire 1 7 Hab_ACK~output_o $end
$var wire 1 8 reset~input_o $end
$var wire 1 9 soy~input_o $end
$var wire 1 : reg_fstate.Oscioso~0_combout $end
$var wire 1 ; fin_dato~input_o $end
$var wire 1 < reg_fstate.R_W~0_combout $end
$var wire 1 = fstate.R_W~q $end
$var wire 1 > reg_fstate.ACK~0_combout $end
$var wire 1 ? fstate.ACK~q $end
$var wire 1 @ reg_fstate.Guarda_Dato~0_combout $end
$var wire 1 A fstate.Guarda_Dato~q $end
$var wire 1 B reg_fstate.Oscioso~1_combout $end
$var wire 1 C reg_fstate.Oscioso~2_combout $end
$var wire 1 D fstate.Oscioso~q $end
$var wire 1 E reg_fstate.Start~0_combout $end
$var wire 1 F fstate.Start~q $end
$var wire 1 G reg_fstate.Guarda_Direccion~0_combout $end
$var wire 1 H fstate.Guarda_Direccion~q $end
$var wire 1 I Hab_Dir~0_combout $end
$var wire 1 J Hab_Dat~0_combout $end
$var wire 1 K Hab_ACK~0_combout $end
$upscope $end
$upscope $end
$enddefinitions $end
#0
$dumpvars
0!
0"
0#
0$
0%
1&
0'
0(
0)
x*
0+
1,
x-
1.
1/
10
01
02
03
04
05
06
07
08
19
0:
0;
0<
0=
0>
0?
0@
0A
0B
1C
0D
1E
0F
0G
0H
0I
0J
0K
$end
#500000
1!
12
14
0*
1F
1D
1G
0E
#1000000
1%
0!
13
02
04
1*
#1500000
1!
12
14
0*
1H
0F
1I
15
1)
#2000000
1"
0%
0!
1;
03
02
04
1*
#2500000
1!
12
14
0*
#3000000
1%
0!
13
02
04
1*
#3500000
1!
12
14
0*
#4000000
1#
0"
0%
0!
11
0;
03
02
04
1*
0G
1<
#4500000
1!
12
14
0*
0H
1=
0<
1>
0I
05
0)
#5000000
1%
0!
13
02
04
1*
#5500000
1!
12
14
0*
1?
0=
1@
0>
1K
17
1'
#6000000
1"
0%
0!
1;
03
02
04
1*
#6500000
1!
12
14
0*
1A
0?
1B
0@
1J
0K
0C
16
07
1(
0'
#7000000
1%
0!
13
02
04
1*
#7500000
1!
12
14
0*
0D
0A
0J
06
0(
#8000000
0#
0"
0%
0!
01
0;
03
02
04
1*
0B
1E
1C
#8500000
1!
12
14
0*
1F
1D
1G
0E
#9000000
1%
0!
13
02
04
1*
#9500000
1!
12
14
0*
1H
0F
1I
15
1)
#10000000
1"
0%
0!
1;
03
02
04
1*
#10500000
1!
12
14
0*
#11000000
1%
0!
13
02
04
1*
#11500000
1!
12
14
0*
#12000000
1#
0"
0%
0!
11
0;
03
02
04
1*
0G
1<
#12500000
1!
12
14
0*
0H
1=
0<
1>
0I
05
0)
#13000000
1%
0!
13
02
04
1*
#13500000
1!
12
14
0*
1?
0=
1@
0>
1K
17
1'
#14000000
1"
0%
0!
1;
03
02
04
1*
#14500000
1!
12
14
0*
1A
0?
1B
0@
1J
0K
0C
16
07
1(
0'
#15000000
1%
0!
13
02
04
1*
#15500000
1!
12
14
0*
0D
0A
0J
06
0(
#16000000
0#
0"
0%
0!
01
0;
03
02
04
1*
0B
1E
1C
#16500000
1!
12
14
0*
1F
1D
1G
0E
#17000000
1%
0!
13
02
04
1*
#17500000
1!
12
14
0*
1H
0F
1I
15
1)
#18000000
1"
0%
0!
1;
03
02
04
1*
#18500000
1!
12
14
0*
#19000000
1%
0!
13
02
04
1*
#19500000
1!
12
14
0*
#20000000
1#
0"
0%
0!
11
0;
03
02
04
1*
0G
1<
#20500000
1!
12
14
0*
0H
1=
0<
1>
0I
05
0)
#21000000
1%
0!
13
02
04
1*
#21500000
1!
12
14
0*
1?
0=
1@
0>
1K
17
1'
#22000000
1"
0%
0!
1;
03
02
04
1*
#22500000
1!
12
14
0*
1A
0?
1B
0@
1J
0K
0C
16
07
1(
0'
#23000000
1%
0!
13
02
04
1*
#23500000
1!
12
14
0*
0D
0A
0J
06
0(
#24000000
0#
0"
0%
0!
01
0;
03
02
04
1*
0B
1E
1C
#24500000
1!
12
14
0*
1F
1D
1G
0E
#25000000
1%
0!
13
02
04
1*
#25500000
1!
12
14
0*
1H
0F
1I
15
1)
#26000000
1"
0%
0!
1;
03
02
04
1*
#26500000
1!
12
14
0*
#27000000
1%
0!
13
02
04
1*
#27500000
1!
12
14
0*
#28000000
1#
0"
0%
0!
11
0;
03
02
04
1*
0G
1<
#28500000
1!
12
14
0*
0H
1=
0<
1>
0I
05
0)
#29000000
1%
0!
13
02
04
1*
#29500000
1!
12
14
0*
1?
0=
1@
0>
1K
17
1'
#30000000
1"
0%
0!
1;
03
02
04
1*
#30500000
1!
12
14
0*
1A
0?
1B
0@
1J
0K
0C
16
07
1(
0'
#31000000
1%
0!
13
02
04
1*
#31500000
1!
12
14
0*
0D
0A
0J
06
0(
#32000000
0#
0"
0%
0!
01
0;
03
02
04
1*
0B
1E
1C
#32500000
1!
12
14
0*
1F
1D
1G
0E
#33000000
1%
0!
13
02
04
1*
#33500000
1!
12
14
0*
1H
0F
1I
15
1)
#34000000
1"
0%
0!
1;
03
02
04
1*
#34500000
1!
12
14
0*
#35000000
1%
0!
13
02
04
1*
#35500000
1!
12
14
0*
#36000000
1#
0"
0%
0!
11
0;
03
02
04
1*
0G
1<
#36500000
1!
12
14
0*
0H
1=
0<
1>
0I
05
0)
#37000000
1%
0!
13
02
04
1*
#37500000
1!
12
14
0*
1?
0=
1@
0>
1K
17
1'
#38000000
1"
0%
0!
1;
03
02
04
1*
#38500000
1!
12
14
0*
1A
0?
1B
0@
1J
0K
0C
16
07
1(
0'
#39000000
1%
0!
13
02
04
1*
#39500000
1!
12
14
0*
0D
0A
0J
06
0(
#40000000
0#
0"
0%
0!
01
0;
03
02
04
1*
0B
1E
1C
#40500000
1!
12
14
0*
1F
1D
1G
0E
#41000000
1%
0!
13
02
04
1*
#41500000
1!
12
14
0*
1H
0F
1I
15
1)
#42000000
1"
0%
0!
1;
03
02
04
1*
#42500000
1!
12
14
0*
#43000000
1%
0!
13
02
04
1*
#43500000
1!
12
14
0*
#44000000
1#
0"
0%
0!
11
0;
03
02
04
1*
0G
1<
#44500000
1!
12
14
0*
0H
1=
0<
1>
0I
05
0)
#45000000
1%
0!
13
02
04
1*
#45500000
1!
12
14
0*
1?
0=
1@
0>
1K
17
1'
#46000000
1"
0%
0!
1;
03
02
04
1*
#46500000
1!
12
14
0*
1A
0?
1B
0@
1J
0K
0C
16
07
1(
0'
#47000000
1%
0!
13
02
04
1*
#47500000
1!
12
14
0*
0D
0A
0J
06
0(
#48000000
0#
0"
0%
0!
01
0;
03
02
04
1*
0B
1E
1C
#48500000
1!
12
14
0*
1F
1D
1G
0E
#49000000
1%
0!
13
02
04
1*
#49500000
1!
12
14
0*
1H
0F
1I
15
1)
#50000000
1"
0%
0!
1;
03
02
04
1*
#50500000
1!
12
14
0*
#51000000
1%
0!
13
02
04
1*
#51500000
1!
12
14
0*
#52000000
1#
0"
0%
0!
11
0;
03
02
04
1*
0G
1<
#52500000
1!
12
14
0*
0H
1=
0<
1>
0I
05
0)
#53000000
1%
0!
13
02
04
1*
#53500000
1!
12
14
0*
1?
0=
1@
0>
1K
17
1'
#54000000
1"
0%
0!
1;
03
02
04
1*
#54500000
1!
12
14
0*
1A
0?
1B
0@
1J
0K
0C
16
07
1(
0'
#55000000
1%
0!
13
02
04
1*
#55500000
1!
12
14
0*
0D
0A
0J
06
0(
#56000000
0#
0"
0%
0!
01
0;
03
02
04
1*
0B
1E
1C
#56500000
1!
12
14
0*
1F
1D
1G
0E
#57000000
1%
0!
13
02
04
1*
#57500000
1!
12
14
0*
1H
0F
1I
15
1)
#58000000
1"
0%
0!
1;
03
02
04
1*
#58500000
1!
12
14
0*
#59000000
1%
0!
13
02
04
1*
#59500000
1!
12
14
0*
#60000000
1#
0"
0%
0!
11
0;
03
02
04
1*
0G
1<
#60500000
1!
12
14
0*
0H
1=
0<
1>
0I
05
0)
#61000000
1%
0!
13
02
04
1*
#61500000
1!
12
14
0*
1?
0=
1@
0>
1K
17
1'
#62000000
1"
0%
0!
1;
03
02
04
1*
#62500000
1!
12
14
0*
1A
0?
1B
0@
1J
0K
0C
16
07
1(
0'
#63000000
1%
0!
13
02
04
1*
#63500000
1!
12
14
0*
0D
0A
0J
06
0(
