PARTE_E/simulation/qsim/PARTE_E.msim.vcd
$comment
	File created using the following command:
		vcd file PARTE_E.msim.vcd -direction
$end
$date
	Thu Nov 07 23:41:13 2024
$end
$version
	ModelSim Version 10.1d
$end
$timescale
	1ps
$end
$scope module Circuito_Final_vlg_vec_tst $end
$var reg 7 ! MiDireccion [6:0] $end
$var reg 1 " SCL $end
$var reg 1 # SDA $end
$var wire 1 $ Dato_Guardado [7] $end
$var wire 1 % Dato_Guardado [6] $end
$var wire 1 & Dato_Guardado [5] $end
$var wire 1 ' Dato_Guardado [4] $end
$var wire 1 ( Dato_Guardado [3] $end
$var wire 1 ) Dato_Guardado [2] $end
$var wire 1 * Dato_Guardado [1] $end
$var wire 1 + Dato_Guardado [0] $end
$var wire 1 , DireccionDestino [6] $end
$var wire 1 - DireccionDestino [5] $end
$var wire 1 . DireccionDestino [4] $end
$var wire 1 / DireccionDestino [3] $end
$var wire 1 0 DireccionDestino [2] $end
$var wire 1 1 DireccionDestino [1] $end
$var wire 1 2 DireccionDestino [0] $end
$var wire 1 3 sampler $end
$scope module i1 $end
$var wire 1 4 gnd $end
$var wire 1 5 vcc $end
$var wire 1 6 unknown $end
$var tri1 1 7 devclrn $end
$var tri1 1 8 devpor $end
$var tri1 1 9 devoe $end
$var wire 1 : inst5|reg_fstate~4_combout $end
$var wire 1 ; MiDireccion[1]~input_o $end
$var wire 1 < MiDireccion[3]~input_o $end
$var wire 1 = MiDireccion[4]~input_o $end
$var wire 1 > MiDireccion[6]~input_o $end
$var wire 1 ? SCL~inputclkctrl_outclk $end
$var wire 1 @ Dato_Guardado[7]~output_o $end
$var wire 1 A Dato_Guardado[6]~output_o $end
$var wire 1 B Dato_Guardado[5]~output_o $end
$var wire 1 C Dato_Guardado[4]~output_o $end
$var wire 1 D Dato_Guardado[3]~output_o $end
$var wire 1 E Dato_Guardado[2]~output_o $end
$var wire 1 F Dato_Guardado[1]~output_o $end
$var wire 1 G Dato_Guardado[0]~output_o $end
$var wire 1 H DireccionDestino[6]~output_o $end
$var wire 1 I DireccionDestino[5]~output_o $end
$var wire 1 J DireccionDestino[4]~output_o $end
$var wire 1 K DireccionDestino[3]~output_o $end
$var wire 1 L DireccionDestino[2]~output_o $end
$var wire 1 M DireccionDestino[1]~output_o $end
$var wire 1 N DireccionDestino[0]~output_o $end
$var wire 1 O MiDireccion[2]~input_o $end
$var wire 1 P SDA~input_o $end
$var wire 1 Q inst2|reg[0]~feeder_combout $end
$var wire 1 R inst2|reg[1]~feeder_combout $end
$var wire 1 S inst2|reg[2]~feeder_combout $end
$var wire 1 T inst9|Equal0~1_combout $end
$var wire 1 U MiDireccion[5]~input_o $end
$var wire 1 V inst2|reg[4]~feeder_combout $end
$var wire 1 W inst2|reg[5]~feeder_combout $end
$var wire 1 X inst9|Equal0~2_combout $end
$var wire 1 Y MiDireccion[0]~input_o $end
$var wire 1 Z inst9|Equal0~0_combout $end
$var wire 1 [ inst5|reg_fstate~3_combout $end
$var wire 1 \ inst5|fstate.R_W~q $end
$var wire 1 ] inst5|fstate.ACK~q $end
$var wire 1 ^ inst3|cnt[1]~2_combout $end
$var wire 1 _ inst3|cnt[2]~1_combout $end
$var wire 1 ` inst3|cnt~0_combout $end
$var wire 1 a inst3|cnt~3_combout $end
$var wire 1 b inst3|Equal0~0_combout $end
$var wire 1 c inst3|fin~q $end
$var wire 1 d inst5|Selector2~0_combout $end
$var wire 1 e inst5|fstate.Guarda_Dato~q $end
$var wire 1 f SCL~input_o $end
$var wire 1 g inst7~combout $end
$var wire 1 h inst7~clkctrl_outclk $end
$var wire 1 i inst4|reg[0]~feeder_combout $end
$var wire 1 j inst4|reg[1]~feeder_combout $end
$var wire 1 k inst4|reg[2]~feeder_combout $end
$var wire 1 l inst4|reg[3]~feeder_combout $end
$var wire 1 m inst4|reg[4]~feeder_combout $end
$var wire 1 n inst4|reg[5]~feeder_combout $end
$var wire 1 o inst4|reg[6]~feeder_combout $end
$var wire 1 p inst4|reg[7]~feeder_combout $end
$var wire 1 q inst5|Selector0~0_combout $end
$var wire 1 r inst9|Equal0~3_combout $end
$var wire 1 s inst9|Equal0~4_combout $end
$var wire 1 t inst5|Selector0~1_combout $end
$var wire 1 u inst5|fstate.Oscioso~q $end
$var wire 1 v inst5|reg_fstate~2_combout $end
$var wire 1 w inst5|fstate.Start~q $end
$var wire 1 x inst|cnt[1]~1_combout $end
$var wire 1 y inst|cnt[0]~2_combout $end
$var wire 1 z inst|cnt[2]~0_combout $end
$var wire 1 { inst|Equal0~0_combout $end
$var wire 1 | inst|fin~q $end
$var wire 1 } inst5|Selector1~0_combout $end
$var wire 1 ~ inst5|fstate.Guarda_Direccion~q $end
$var wire 1 !! inst6~combout $end
$var wire 1 "! inst6~clkctrl_outclk $end
$var wire 1 #! inst2|reg[6]~feeder_combout $end
$var wire 1 $! inst4|reg [7] $end
$var wire 1 %! inst4|reg [6] $end
$var wire 1 &! inst4|reg [5] $end
$var wire 1 '! inst4|reg [4] $end
$var wire 1 (! inst4|reg [3] $end
$var wire 1 )! inst4|reg [2] $end
$var wire 1 *! inst4|reg [1] $end
$var wire 1 +! inst4|reg [0] $end
$var wire 1 ,! inst|cnt [2] $end
$var wire 1 -! inst|cnt [1] $end
$var wire 1 .! inst|cnt [0] $end
$var wire 1 /! inst2|reg [6] $end
$var wire 1 0! inst2|reg [5] $end
$var wire 1 1! inst2|reg [4] $end
$var wire 1 2! inst2|reg [3] $end
$var wire 1 3! inst2|reg [2] $end
$var wire 1 4! inst2|reg [1] $end
$var wire 1 5! inst2|reg [0] $end
$var wire 1 6! inst3|cnt [3] $end
$var wire 1 7! inst3|cnt [2] $end
$var wire 1 8! inst3|cnt [1] $end
$var wire 1 9! inst3|cnt [0] $end
$upscope $end
$upscope $end
$enddefinitions $end
#0
$dumpvars
b1 !
0"
0#
0+
0*
0)
0(
0'
0&
0%
0$
02
01
00
0/
0.
0-
0,
x3
04
15
x6
17
18
19
0:
0;
0<
0=
0>
0?
0@
0A
0B
0C
0D
0E
0F
0G
0H
0I
0J
0K
0L
0M
0N
0O
0P
0Q
0R
0S
1T
0U
0V
0W
1X
1Y
0Z
0[
0\
0]
0^
0_
0`
1a
0b
0c
0d
0e
0f
0g
0h
0i
0j
0k
0l
0m
0n
0o
0p
0q
0r
0s
1t
0u
1v
0w
0x
1y
0z
0{
0|
0}
0~
0!!
0"!
0#!
0+!
0*!
0)!
0(!
0'!
0&!
0%!
0$!
0.!
0-!
0,!
05!
04!
03!
02!
01!
00!
0/!
09!
08!
07!
06!
$end
#5000
1"
1#
1f
1P
1?
03
0v
1q
1i
1Q
0t
1w
1u
1}
0q
1t
#10000
0"
0f
0?
13
#15000
0#
1"
0P
1f
1?
03
0i
0Q
1~
0w
1!!
1"!
1.!
0y
1x
#20000
0"
0f
0?
13
0!!
0"!
#25000
1"
1f
1?
03
1!!
1"!
0.!
1-!
1y
#30000
0"
0f
0?
13
0!!
0"!
#35000
1#
1"
1P
1f
1?
03
1i
1Q
1!!
1"!
1.!
15!
1z
0y
0x
1Z
1R
1N
12
1s
#40000
0#
0"
0P
0f
0?
13
0i
0Q
0!!
0"!
#45000
1#
1"
1P
1f
1?
03
1i
1Q
1!!
1"!
1,!
0.!
0-!
14!
1y
0Z
1S
1M
11
0s
#50000
0"
0f
0?
13
0!!
0"!
#55000
1"
1f
1?
03
1!!
1"!
1.!
13!
0y
1x
0T
1L
10
#60000
0"
0f
0?
13
0!!
0"!
#65000
0#
1"
0P
1f
1?
03
0i
0Q
1!!
1"!
0.!
1-!
12!
05!
1y
1V
0R
1K
0N
1/
02
#70000
1#
0"
1P
0f
0?
13
1i
1Q
0!!
0"!
#75000
1"
1f
1?
03
1!!
1"!
1.!
11!
04!
15!
1{
0z
0y
0x
0X
1W
1Z
0S
1R
1J
0M
1N
1.
01
12
#80000
0"
0f
0?
13
0!!
0"!
#85000
0#
1"
0P
1f
1?
03
0i
0Q
1!!
1"!
1|
0,!
0.!
0-!
10!
03!
14!
05!
0}
0t
1:
0{
1y
1#!
0Z
1S
0R
1I
0L
1M
0N
1-
00
11
02
#90000
0"
0f
0?
13
0!!
0"!
#95000
1"
1f
1?
03
1!!
1"!
0|
1.!
0~
0u
1/!
02!
13!
04!
1t
0:
0y
1x
0!!
1v
1r
0V
0S
1H
0K
1L
0M
0"!
1,
0/
10
01
#100000
0"
0f
0?
13
#105000
1"
1f
1?
03
1w
1u
1}
0v
#110000
0"
0f
0?
13
#115000
1"
1f
1?
03
1~
0w
1!!
1"!
0.!
1-!
01!
12!
03!
1y
0W
1V
0J
1K
0L
0.
1/
00
#120000
1#
0"
1P
0f
0?
13
1i
1Q
0!!
0"!
#125000
1"
1f
1?
03
1!!
1"!
1.!
00!
11!
02!
15!
1z
0y
0x
0#!
1W
0V
1T
1Z
1R
0I
1J
0K
1N
0-
1.
0/
12
#130000
0#
0"
0P
0f
0?
13
0i
0Q
0!!
0"!
#135000
1#
1"
1P
1f
1?
03
1i
1Q
1!!
1"!
1,!
0.!
0-!
0/!
10!
01!
14!
1y
0r
1#!
0W
0Z
1S
0H
1I
0J
1M
0,
1-
0.
11
#140000
0"
0f
0?
13
0!!
0"!
#145000
0#
1"
0P
1f
1?
03
0i
0Q
1!!
1"!
1.!
1/!
00!
13!
05!
0y
1x
1r
0#!
1X
0T
0R
1H
0I
1L
0N
1,
0-
10
02
#150000
0"
0f
0?
13
0!!
0"!
#155000
1#
1"
1P
1f
1?
03
1i
1Q
1!!
1"!
0.!
1-!
0/!
12!
04!
15!
1y
0r
1V
1Z
0S
1R
0H
1K
0M
1N
0,
1/
01
12
#160000
0#
0"
0P
0f
0?
13
0i
0Q
0!!
0"!
#165000
1"
1f
1?
03
1!!
1"!
1.!
11!
03!
14!
05!
1{
0z
0y
0x
0X
1W
0Z
1S
0R
1J
0L
1M
0N
1.
00
11
02
#170000
1#
0"
1P
0f
0?
13
1i
1Q
0!!
0"!
#175000
0#
1"
0P
1f
1?
03
0i
0Q
1!!
1"!
1|
0,!
0.!
0-!
10!
02!
13!
04!
0}
0t
1:
0{
1y
1#!
0V
0S
1I
0K
1L
0M
1-
0/
10
01
#180000
0"
0f
0?
13
0!!
0"!
#185000
1#
1"
1P
1f
1?
03
1i
1Q
1!!
1"!
0|
1.!
0~
0u
1/!
01!
12!
03!
15!
1t
0:
0y
1x
0!!
1q
1r
0W
1V
1Z
1R
1H
0J
1K
0L
1N
0"!
1,
0.
1/
00
12
0t
#190000
0"
0f
0?
13
#195000
0#
1"
0P
1f
1?
03
1v
0q
0i
0Q
1t
#200000
0"
0f
0?
13
#205000
1"
1f
1?
03
1w
1u
1}
0v
#210000
1#
0"
1P
0f
0?
13
1i
1Q
#215000
1"
1f
1?
03
1~
0w
1!!
1"!
0.!
1-!
00!
11!
02!
14!
1y
0#!
1W
0V
1T
0Z
1S
0I
1J
0K
1M
0-
1.
0/
11
#220000
0#
0"
0P
0f
0?
13
0i
0Q
0!!
0"!
#225000
1"
1f
1?
03
1!!
1"!
1.!
0/!
10!
01!
13!
05!
1z
0y
0x
0r
1#!
0W
0T
0R
0H
1I
0J
1L
0N
0,
1-
0.
10
02
#230000
0"
0f
0?
13
0!!
0"!
#235000
1"
1f
1?
03
1!!
1"!
1,!
0.!
0-!
1/!
00!
12!
04!
1y
1r
0#!
1X
1V
0S
1H
0I
1K
0M
1,
0-
1/
01
#240000
0"
0f
0?
13
0!!
0"!
#245000
1"
1f
1?
03
1!!
1"!
1.!
0/!
11!
03!
0y
1x
0r
0X
1W
0H
1J
0L
0,
1.
00
#250000
1#
0"
1P
0f
0?
13
1i
1Q
0!!
0"!
#255000
0#
1"
0P
1f
1?
03
0i
0Q
1!!
1"!
0.!
1-!
10!
02!
1y
1#!
0V
1T
1I
0K
1-
0/
#260000
0"
0f
0?
13
0!!
0"!
#265000
1#
1"
1P
1f
1?
03
1i
1Q
1!!
1"!
1.!
1/!
01!
15!
1{
0z
0y
0x
1r
0W
1Z
1R
1H
0J
1N
1,
0.
12
#270000
0"
0f
0?
13
0!!
0"!
#275000
1"
1f
1?
03
1!!
1"!
1|
0,!
0.!
0-!
00!
14!
0}
0t
0{
1y
0#!
1X
0Z
1S
0I
1M
0-
11
#280000
0"
0f
0?
13
0!!
0"!
#285000
0#
1"
0P
1f
1?
03
0i
0Q
1!!
1"!
0|
1.!
0~
0u
0/!
13!
05!
1t
0y
1x
0!!
1v
0r
0T
0R
0H
1L
0N
0"!
0,
10
02
#290000
0"
0f
0?
13
#295000
1"
1f
1?
03
1w
1u
1}
0v
#300000
0"
0f
0?
13
#305000
1"
1f
1?
03
1~
0w
1!!
1"!
0.!
1-!
12!
04!
1y
1V
0S
1K
0M
1/
01
#310000
1#
0"
1P
0f
0?
13
1i
1Q
0!!
0"!
#315000
1"
1f
1?
03
1!!
1"!
1.!
11!
03!
15!
1z
0y
0x
0X
1W
1Z
1R
1J
0L
1N
1.
00
12
#320000
0#
0"
0P
0f
0?
13
0i
0Q
0!!
0"!
#325000
1#
1"
1P
1f
1?
03
1i
1Q
1!!
1"!
1,!
0.!
0-!
10!
02!
14!
1y
1#!
0V
1T
0Z
1S
1I
0K
1M
1-
0/
11
#330000
0#
0"
0P
0f
0?
13
0i
0Q
0!!
0"!
#335000
1#
1"
1P
1f
1?
03
1i
1Q
1!!
1"!
1.!
1/!
01!
13!
0y
1x
1r
0W
0T
1H
0J
1L
1,
0.
10
#340000
0"
0f
0?
13
0!!
0"!
#345000
0#
1"
0P
1f
1?
03
0i
0Q
1!!
1"!
0.!
1-!
00!
12!
05!
1y
0#!
1X
1V
0R
0I
1K
0N
0-
1/
02
#350000
0"
0f
0?
13
0!!
0"!
#355000
1#
1"
1P
1f
1?
03
1i
1Q
1!!
1"!
1.!
0/!
11!
04!
15!
1{
0z
0y
0x
0r
0X
1W
1Z
0S
1R
0H
1J
0M
1N
0,
1.
01
12
#360000
0#
0"
0P
0f
0?
13
0i
0Q
0!!
0"!
#365000
1"
1f
1?
03
1!!
1"!
1|
0,!
0.!
0-!
10!
03!
14!
05!
0}
0t
1:
0{
1y
1#!
0Z
1S
0R
1I
0L
1M
0N
1-
00
11
02
#370000
1#
0"
1P
0f
0?
13
1i
1Q
0!!
0"!
#375000
1"
1f
1?
03
1!!
1"!
0|
1.!
0~
0u
1/!
02!
13!
04!
15!
1t
0:
0y
1x
0!!
1q
1r
0V
1Z
0S
1R
1H
0K
1L
0M
1N
0"!
1,
0/
10
01
12
0t
#380000
0"
0f
0?
13
#385000
1"
1f
1?
03
#390000
0"
0f
0?
13
#395000
0#
1"
0P
1f
1?
03
1v
0q
0i
0Q
1t
#400000
1#
0"
1P
0f
0?
13
0v
1q
1i
1Q
0t
#405000
1"
1f
1?
03
#410000
0"
0f
0?
13
#415000
1"
1f
1?
03
#420000
0#
0"
0P
0f
0?
13
1v
0q
0i
0Q
1t
#425000
1#
1"
1P
1f
1?
03
0v
1q
1i
1Q
0t
1w
1u
1}
0q
1t
#430000
0#
0"
0P
0f
0?
13
0i
0Q
#435000
1#
1"
1P
1f
1?
03
1i
1Q
1~
0w
1!!
1"!
0.!
1-!
01!
12!
03!
14!
1y
0W
1V
0Z
1S
0J
1K
0L
1M
0.
1/
00
11
#440000
0"
0f
0?
13
0!!
0"!
#445000
1"
1f
1?
03
1!!
1"!
1.!
00!
11!
02!
13!
1z
0y
0x
0#!
1W
0V
0I
1J
0K
1L
0-
1.
0/
10
#450000
0"
0f
0?
13
0!!
0"!
#455000
0#
1"
0P
1f
1?
03
0i
0Q
1!!
1"!
1,!
0.!
0-!
0/!
10!
01!
12!
05!
1y
0r
1#!
0W
1V
0R
0H
1I
0J
1K
0N
0,
1-
0.
1/
02
#460000
0"
0f
0?
13
0!!
0"!
#465000
1"
1f
1?
03
1!!
1"!
1.!
1/!
00!
11!
04!
0y
1x
1r
0#!
1W
0S
1H
0I
1J
0M
1,
0-
1.
01
#470000
1#
0"
1P
0f
0?
13
1i
1Q
0!!
0"!
#475000
0#
1"
0P
1f
1?
03
0i
0Q
1!!
1"!
0.!
1-!
0/!
10!
03!
1y
0r
1#!
0H
1I
0L
0,
1-
00
#480000
0"
0f
0?
13
0!!
0"!
#485000
1#
1"
1P
1f
1?
03
1i
1Q
1!!
1"!
1.!
1/!
02!
15!
1{
0z
0y
0x
1r
0V
1T
1Z
1R
1H
0K
1N
1,
0/
12
#490000
0#
0"
0P
0f
0?
13
0i
0Q
0!!
0"!
#495000
1#
1"
1P
1f
1?
03
1i
1Q
1!!
1"!
1|
0,!
0.!
0-!
01!
14!
0}
0t
0{
1y
0W
0Z
1S
0J
1M
0.
11
#500000
0#
0"
0P
0f
0?
13
0i
0Q
0!!
0"!
#505000
1"
1f
1?
03
1!!
1"!
0|
1.!
0~
0u
00!
13!
05!
1t
0y
1x
0!!
1v
0#!
1X
0T
0R
0I
1L
0N
0"!
0-
10
02
#510000
1#
0"
1P
0f
0?
13
0v
1q
1i
1Q
0t
#515000
1"
1f
1?
03
#520000
0#
0"
0P
0f
0?
13
1v
0q
0i
0Q
1t
#525000
1"
1f
1?
03
1w
1u
1}
0v
#530000
1#
0"
1P
0f
0?
13
1i
1Q
#535000
1"
1f
1?
03
1~
0w
1!!
1"!
0.!
1-!
0/!
12!
04!
15!
1y
0r
1V
1Z
0S
1R
0H
1K
0M
1N
0,
1/
01
12
#540000
0#
0"
0P
0f
0?
13
0i
0Q
0!!
0"!
#545000
1"
1f
1?
03
1!!
1"!
1.!
11!
03!
14!
05!
1z
0y
0x
0X
1W
0Z
1S
0R
1J
0L
1M
0N
1.
00
11
02
#550000
0"
0f
0?
13
0!!
0"!
#555000
1#
1"
1P
1f
1?
03
1i
1Q
1!!
1"!
1,!
0.!
0-!
10!
02!
13!
04!
15!
1y
1#!
0V
1Z
0S
1R
1I
0K
1L
0M
1N
1-
0/
10
01
12
#560000
0"
0f
0?
13
0!!
0"!
#565000
0#
1"
0P
1f
1?
03
0i
0Q
1!!
1"!
1.!
1/!
01!
12!
03!
14!
05!
0y
1x
1r
0W
1V
0Z
1S
0R
1H
0J
1K
0L
1M
0N
1,
0.
1/
00
11
02
#570000
0"
0f
0?
13
0!!
0"!
#575000
1"
1f
1?
03
1!!
1"!
0.!
1-!
00!
11!
02!
13!
04!
1y
0#!
1W
0V
0S
0I
1J
0K
1L
0M
0-
1.
0/
10
01
#580000
0"
0f
0?
13
0!!
0"!
#585000
1"
1f
1?
03
1!!
1"!
1.!
0/!
10!
01!
12!
03!
1{
0z
0y
0x
0r
1#!
0W
1V
0H
1I
0J
1K
0L
0,
1-
0.
1/
00
#590000
1#
0"
1P
0f
0?
13
1i
1Q
0!!
0"!
#595000
1"
1f
1?
03
1!!
1"!
1|
0,!
0.!
0-!
1/!
00!
11!
02!
15!
0}
0t
0{
1y
1r
0#!
1W
0V
1T
1Z
1R
1H
0I
1J
0K
1N
1,
0-
1.
0/
12
#600000
0"
0f
0?
13
0!!
0"!
#605000
0#
1"
0P
1f
1?
03
0i
0Q
1!!
1"!
0|
1.!
0~
0u
0/!
10!
01!
14!
05!
1t
0y
1x
0!!
1v
0r
1#!
0W
0Z
1S
0R
0H
1I
0J
1M
0N
0"!
0,
1-
0.
11
02
#610000
1#
0"
1P
0f
0?
13
0v
1q
1i
1Q
0t
#615000
1"
1f
1?
03
#620000
0"
0f
0?
13
#625000
0#
1"
0P
1f
1?
03
1v
0q
0i
0Q
1t
#630000
1#
0"
1P
0f
0?
13
0v
1q
1i
1Q
0t
#635000
0#
1"
0P
1f
1?
03
1v
0q
0i
0Q
1t
#640000
1#
0"
1P
0f
0?
13
0v
1q
1i
1Q
0t
#645000
1"
1f
1?
03
#650000
0#
0"
0P
0f
0?
13
1v
0q
0i
0Q
1t
#655000
1"
1f
1?
03
1w
1u
1}
0v
#660000
0"
0f
0?
13
#665000
1"
1f
1?
03
1~
0w
1!!
1"!
0.!
1-!
1/!
00!
13!
04!
1y
1r
0#!
1X
0T
0S
1H
0I
1L
0M
1,
0-
10
01
#670000
0"
0f
0?
13
0!!
0"!
#675000
1#
1"
1P
1f
1?
03
1i
1Q
1!!
1"!
1.!
0/!
12!
03!
15!
1z
0y
0x
0r
1V
1Z
1R
0H
1K
0L
1N
0,
1/
00
12
#680000
0#
0"
0P
0f
0?
13
0i
0Q
0!!
0"!
#685000
1"
1f
1?
03
1!!
1"!
1,!
0.!
0-!
11!
02!
14!
05!
1y
0X
1W
0V
1T
0Z
1S
0R
1J
0K
1M
0N
1.
0/
11
02
#690000
0"
0f
0?
13
0!!
0"!
#695000
1#
1"
1P
1f
1?
03
1i
1Q
1!!
1"!
1.!
10!
01!
13!
04!
15!
0y
1x
1#!
0W
0T
1Z
0S
1R
1I
0J
1L
0M
1N
1-
0.
10
01
12
#700000
0"
0f
0?
13
0!!
0"!
#705000
0#
1"
0P
1f
1?
03
0i
0Q
1!!
1"!
0.!
1-!
1/!
00!
12!
03!
14!
05!
1y
1r
0#!
1X
1V
0Z
1S
0R
1H
0I
1K
0L
1M
0N
1,
0-
1/
00
11
02
#710000
1#
0"
1P
0f
0?
13
1i
1Q
0!!
0"!
#715000
0#
1"
0P
1f
1?
03
0i
0Q
1!!
1"!
1.!
0/!
11!
02!
13!
04!
1{
0z
0y
0x
0r
0X
1W
0V
0S
0H
1J
0K
1L
0M
0,
1.
0/
10
01
#720000
1#
0"
1P
0f
0?
13
1i
1Q
0!!
0"!
#725000
0#
1"
0P
1f
1?
03
0i
0Q
1!!
1"!
1|
0,!
0.!
0-!
10!
01!
12!
03!
0}
0t
1:
0{
1y
1#!
0W
1V
1I
0J
1K
0L
1-
0.
1/
00
#730000
1#
0"
1P
0f
0?
13
1i
1Q
0!!
0"!
#735000
1"
1f
1?
03
1!!
1"!
0|
1.!
0~
0u
1/!
00!
11!
02!
15!
1t
0:
0y
1x
0!!
1q
1r
0#!
1W
0V
1T
1Z
1R
1H
0I
1J
0K
1N
0"!
1,
0-
1.
0/
12
0t
#740000
0#
0"
0P
0f
0?
13
1v
0q
0i
0Q
1t
#745000
1#
1"
1P
1f
1?
03
0v
1q
1i
1Q
0t
1w
1u
1}
0q
1t
#750000
0#
0"
0P
0f
0?
13
0i
0Q
#755000
1"
1f
1?
03
1~
0w
1!!
1"!
0.!
1-!
0/!
10!
01!
14!
05!
1y
0r
1#!
0W
0Z
1S
0R
0H
1I
0J
1M
0N
0,
1-
0.
11
02
#760000
0"
0f
0?
13
0!!
0"!
#765000
1"
1f
1?
03
1!!
1"!
1.!
1/!
00!
13!
04!
1z
0y
0x
1r
0#!
1X
0T
0S
1H
0I
1L
0M
1,
0-
10
01
#770000
1#
0"
1P
0f
0?
13
1i
1Q
0!!
0"!
#775000
0#
1"
0P
1f
1?
03
0i
0Q
1!!
1"!
1,!
0.!
0-!
0/!
12!
03!
1y
0r
1V
0H
1K
0L
0,
1/
00
#780000
1#
0"
1P
0f
0?
13
1i
1Q
0!!
0"!
#785000
1"
1f
1?
03
1!!
1"!
1.!
11!
02!
15!
0y
1x
0X
1W
0V
1T
1Z
1R
1J
0K
1N
1.
0/
12
#790000
0"
0f
0?
13
0!!
0"!
#795000
1"
1f
1?
03
1!!
1"!
0.!
1-!
10!
01!
14!
1y
1#!
0W
0Z
1S
1I
0J
1M
1-
0.
11
#800000
0#
0"
0P
0f
0?
13
0i
0Q
0!!
0"!
#805000
1"
1f
1?
03
1!!
1"!
1.!
1/!
00!
13!
05!
1{
0z
0y
0x
1r
0#!
1X
0T
0R
1H
0I
1L
0N
1,
0-
10
02
#810000
1#
0"
1P
0f
0?
13
1i
1Q
0!!
0"!
#815000
1"
1f
1?
03
1!!
1"!
1|
0,!
0.!
0-!
0/!
12!
04!
15!
0}
0t
1:
0{
1y
0r
1V
1Z
0S
1R
0H
1K
0M
1N
0,
1/
01
12
#820000
0#
0"
0P
0f
0?
13
0i
0Q
0!!
0"!
#825000
1"
1f
1?
03
1!!
1"!
0|
1.!
0~
0u
11!
03!
14!
05!
1t
0:
0y
1x
0!!
1v
0X
1W
0Z
1S
0R
1J
0L
1M
0N
0"!
1.
00
11
02
#830000
0"
0f
0?
13
#835000
1"
1f
1?
03
1w
1u
1}
0v
#840000
1#
0"
1P
0f
0?
13
1i
1Q
#845000
0#
1"
0P
1f
1?
03
0i
0Q
1~
0w
1!!
1"!
0.!
1-!
10!
02!
13!
04!
1y
1#!
0V
0S
1I
0K
1L
0M
1-
0/
10
01
#850000
0"
0f
0?
13
0!!
0"!
#855000
1"
1f
1?
03
1!!
1"!
1.!
1/!
01!
12!
03!
1z
0y
0x
1r
0W
1V
1H
0J
1K
0L
1,
0.
1/
00
#860000
1#
0"
1P
0f
0?
13
1i
1Q
0!!
0"!
#865000
0#
1"
0P
1f
1?
03
0i
0Q
1!!
1"!
1,!
0.!
0-!
00!
11!
02!
1y
0#!
1W
0V
1T
0I
1J
0K
0-
1.
0/
#870000
0"
0f
0?
13
0!!
0"!
#875000
1"
1f
1?
03
1!!
1"!
1.!
0/!
10!
01!
0y
1x
0r
1#!
0W
0H
1I
0J
0,
1-
0.
#880000
0"
0f
0?
13
0!!
0"!
#885000
1"
1f
1?
03
1!!
1"!
0.!
1-!
1/!
00!
1y
1r
0#!
1X
1H
0I
1,
0-
#890000
1#
0"
1P
0f
0?
13
1i
1Q
0!!
0"!
#895000
1"
1f
1?
03
1!!
1"!
1.!
0/!
15!
1{
0z
0y
0x
0r
1Z
1R
0H
1N
0,
12
1s
#900000
0"
0f
0?
13
0!!
0"!
#905000
0#
1"
0P
1f
1?
03
0i
0Q
1!!
1"!
1|
0,!
0.!
0-!
14!
05!
0}
1:
0{
1y
0Z
1S
0R
1M
0N
11
02
0s
0t
#910000
1#
0"
1P
0f
0?
13
1i
1Q
0!!
0"!
#915000
0#
1"
0P
1f
1?
03
0i
0Q
1!!
1"!
0|
1.!
0~
0u
13!
04!
1t
0:
0y
1x
0!!
1v
0T
0S
1L
0M
0"!
10
01
#920000
1#
0"
1P
0f
0?
13
0v
1q
1i
1Q
0t
#925000
1"
1f
1?
03
#930000
0"
0f
0?
13
#935000
1"
1f
1?
03
#940000
0"
0f
0?
13
#945000
0#
1"
0P
1f
1?
03
1v
0q
0i
0Q
1t
#950000
1#
0"
1P
0f
0?
13
0v
1q
1i
1Q
0t
#955000
1"
1f
1?
03
#960000
0"
0f
0?
13
#965000
0#
1"
0P
1f
1?
03
1v
0q
0i
0Q
1t
#970000
1#
0"
1P
0f
0?
13
0v
1q
1i
1Q
0t
#975000
0#
1"
0P
1f
1?
03
1v
0q
0i
0Q
1t
#980000
1#
0"
1P
0f
0?
13
0v
1q
1i
1Q
0t
#985000
1"
1f
1?
03
#990000
0#
0"
0P
0f
0?
13
1v
0q
0i
0Q
1t
#995000
1"
1f
1?
03
1w
1u
1}
0v
